[{
	text: 'اطلاعات پایه',
	iconCls: 'wui-base-icon',
	expanded: true,
	children: [
	{		
		text: 'نوع مستند',
		id: 'base-types',
		leaf: true,
		moduleClass: 'MyDesktop.Modules.Base.Client.subModule.Types',
		cssClass:'wui-types-icon',
		iconCls:'icon-types'
	},
	{		
		text: 'الگو',
		id: 'base-templates',
		leaf: true,
		moduleClass: 'MyDesktop.Modules.Base.Client.subModule.Templates',
		cssClass:'wui-templates-icon',
		iconCls:'icon-templates'
	},
	{		
		text: 'بخش',
		id: 'base-units',
		leaf: true,
		moduleClass: 'MyDesktop.Modules.Base.Client.subModule.Units',
		cssClass:'wui-unit-icon',
		iconCls:'icon-unit'
	},
	  {
		text: 'استان',
		id: 'base-province',
		leaf: true,
		moduleClass: 'MyDesktop.Modules.Base.Client.subModule.Province',
		cssClass:'wui-unit-icon',
		iconCls:'icon-unit'
	  },
	  {
		text: 'شهرستان',
		id: 'base-city',
		leaf: true,
		moduleClass: 'MyDesktop.Modules.Base.Client.subModule.City',
		cssClass:'wui-unit-icon',
		iconCls:'icon-unit'
	  }
	]
}]
